\relax 
\catcode `"\active 
\select@language{brazil}
\@writefile{toc}{\select@language{brazil}}
\@writefile{lof}{\select@language{brazil}}
\@writefile{lot}{\select@language{brazil}}
\@writefile{toc}{\contentsline {section}{\numberline {1}Introdu\IeC {\c c}\IeC {\~a}o}{2}}
\@writefile{toc}{\contentsline {section}{\numberline {2}Matriz de Banda com Array de Listas}{2}}
\@writefile{toc}{\contentsline {section}{\numberline {3}Matriz de Banda com Compress\IeC {\~a}o por Colunas}{3}}
\@writefile{toc}{\contentsline {section}{\numberline {4}Solution metodology}{3}}
\@writefile{toc}{\contentsline {subsection}{\numberline {4.1}Initial solution}{3}}
\@writefile{toc}{\contentsline {subsubsection}{\numberline {4.1.1}Programming heuristic}{4}}
\@writefile{toc}{\contentsline {subsection}{\numberline {4.2}Objective function}{5}}
\@writefile{toc}{\contentsline {subsection}{\numberline {4.3}Neighborhood structure}{5}}
\@writefile{lof}{\contentsline {figure}{\numberline {1}{\ignorespaces Examples of movements. (a) reordering. (b) exchange. (c) relocation.}}{5}}
\@writefile{toc}{\contentsline {subsection}{\numberline {4.4}Local Search}{5}}
\@writefile{toc}{\contentsline {subsection}{\numberline {4.5}Busca Local Iterada}{6}}
\@writefile{loa}{\contentsline {algocf}{\numberline {1}{\ignorespaces \textsc  {Iterated Local Search}}}{6}}
\@writefile{toc}{\contentsline {section}{\numberline {5}Computational results}{6}}
\@writefile{lot}{\contentsline {table}{\numberline {1}{\ignorespaces Results from the execution of the algorithms of Mauri and Lorena (2009) and the four variants of the ILS algorithm for the 20 instances of Cordeau and Laporte (2003). Best values are shown in bold.}}{7}}
\@writefile{lot}{\contentsline {table}{\numberline {2}{\ignorespaces Comparison of the results of Mauri and Lorena (2009) and Iterated Local Search with random initial solution and random neighbourhood structure.}}{8}}
\@writefile{toc}{\contentsline {section}{\numberline {6}Conclusion}{8}}
