\relax 
\providecommand\hyper@newdestlabel[2]{}
\catcode `"\active 
\providecommand\HyperFirstAtBeginDocument{\AtBeginDocument}
\HyperFirstAtBeginDocument{\ifx\hyper@anchor\@undefined
\global\let\oldcontentsline\contentsline
\gdef\contentsline#1#2#3#4{\oldcontentsline{#1}{#2}{#3}}
\global\let\oldnewlabel\newlabel
\gdef\newlabel#1#2{\newlabelxx{#1}#2}
\gdef\newlabelxx#1#2#3#4#5#6{\oldnewlabel{#1}{{#2}{#3}}}
\AtEndDocument{\ifx\hyper@anchor\@undefined
\let\contentsline\oldcontentsline
\let\newlabel\oldnewlabel
\fi}
\fi}
\global\let\hyper@last\relax 
\gdef\HyperFirstAtBeginDocument#1{#1}
\providecommand\HyField@AuxAddToFields[1]{}
\providecommand\HyField@AuxAddToCoFields[2]{}
\select@language{brazil}
\@writefile{toc}{\select@language{brazil}}
\@writefile{lof}{\select@language{brazil}}
\@writefile{lot}{\select@language{brazil}}
\@writefile{toc}{\contentsline {section}{\numberline {I}Introdu\IeC {\c c}\IeC {\~a}o}{1}{section.1}}
\@writefile{toc}{\contentsline {section}{\numberline {II}Matriz de Banda com Array de Listas}{1}{section.2}}
\@writefile{toc}{\contentsline {section}{\numberline {III}Resolu\IeC {\c c}\IeC {\~a}o de Sistemas com Matrizes de Banda com Array de Listas}{3}{section.3}}
\@writefile{toc}{\contentsline {section}{\numberline {IV}Matriz de Banda com Compress\IeC {\~a}o por Colunas}{3}{section.4}}
\citation{stock}
\@writefile{toc}{\contentsline {section}{\numberline {V}Model Development}{4}{section.5}}
\newlabel{eq1}{{1}{4}{Model Development}{equation.5.1}{}}
\newlabel{eq2}{{2}{4}{Model Development}{equation.5.2}{}}
\newlabel{eq2}{{3}{4}{Model Development}{equation.5.3}{}}
\@writefile{toc}{\contentsline {section}{\numberline {VI}Model discussion}{5}{section.6}}
\newlabel{eq3}{{4}{5}{Model discussion}{equation.6.4}{}}
\@writefile{toc}{\contentsline {section}{\numberline {VII}Model evaluation}{6}{section.7}}
\@writefile{toc}{\contentsline {section}{\numberline {VIII}Conclusions}{6}{section.8}}
\bibcite{stock}{1}
\@writefile{toc}{\contentsline {section}{\numberline {IX}Appendix}{7}{section.9}}
\@writefile{lot}{\contentsline {table}{\numberline {1}{\ignorespaces Forecasting performance of alternative real activity measures\relax }}{8}{table.caption.1}}
\providecommand*\caption@xref[2]{\@setref\relax\@undefined{#1}}
\newlabel{Table 1}{{1}{8}{Forecasting performance of alternative real activity measures\relax }{table.caption.1}{}}
\@writefile{lot}{\contentsline {table}{\numberline {2}{\ignorespaces Relative mean-squared errors obtained from simulation Monte Carlo procedure (1000 repetitions)\relax }}{8}{table.caption.2}}
\newlabel{Table2}{{2}{8}{Relative mean-squared errors obtained from simulation Monte Carlo procedure (1000 repetitions)\relax }{table.caption.2}{}}
